<?xml version="1.0" encoding="UTF-8" standalone="no"?>
<!-- Created with Inkscape (http://www.inkscape.org/) -->

<svg
   xmlns:svg="http://www.w3.org/2000/svg"
   xmlns="http://www.w3.org/2000/svg"
   xmlns:xlink="http://www.w3.org/1999/xlink"
   version="1.1"
   width="48"
   height="48"
   id="svg2">
  <defs
     id="defs4">
    <linearGradient
       id="linearGradient4110">
      <stop
         id="stop4112"
         style="stop-color:#be0606;stop-opacity:0.70588237"
         offset="0" />
      <stop
         id="stop4114"
         style="stop-color:#ecd1d1;stop-opacity:0.71673822"
         offset="1" />
    </linearGradient>
    <linearGradient
       id="linearGradient3814">
      <stop
         id="stop3816"
         style="stop-color:#2328ed;stop-opacity:0.74509805"
         offset="0" />
      <stop
         id="stop3818"
         style="stop-color:#c3c4ed;stop-opacity:0.71764708"
         offset="1" />
    </linearGradient>
    <linearGradient
       id="linearGradient3782">
      <stop
         id="stop3784"
         style="stop-color:#eb9a89;stop-opacity:1"
         offset="0" />
      <stop
         id="stop3647"
         style="stop-color:#eaeaea;stop-opacity:1"
         offset="0.33333334" />
      <stop
         id="stop3786"
         style="stop-color:#b2b2b2;stop-opacity:1"
         offset="1" />
    </linearGradient>
    <linearGradient
       id="linearGradient3758">
      <stop
         id="stop3760"
         style="stop-color:#7893e2;stop-opacity:1"
         offset="0" />
      <stop
         id="stop3645"
         style="stop-color:#eaeaea;stop-opacity:1"
         offset="0.32692307" />
      <stop
         id="stop3762"
         style="stop-color:#b2b2b2;stop-opacity:1"
         offset="1" />
    </linearGradient>
    <linearGradient
       x1="1.5"
       y1="1027.3622"
       x2="13.5"
       y2="1027.3622"
       id="linearGradient3764"
       xlink:href="#linearGradient3758"
       gradientUnits="userSpaceOnUse" />
    <linearGradient
       x1="10"
       y1="1022.3622"
       x2="10"
       y2="1017.3622"
       id="linearGradient3820"
       xlink:href="#linearGradient3814"
       gradientUnits="userSpaceOnUse" />
    <linearGradient
       x1="10"
       y1="1024.3622"
       x2="10"
       y2="1018.0764"
       id="linearGradient3822"
       xlink:href="#linearGradient3814"
       gradientUnits="userSpaceOnUse"
       gradientTransform="translate(0,-1.047631)" />
    <linearGradient
       x1="10"
       y1="1022.3622"
       x2="10"
       y2="1017.3622"
       id="linearGradient3824"
       xlink:href="#linearGradient3814"
       gradientUnits="userSpaceOnUse" />
    <linearGradient
       x1="27"
       y1="1018.3622"
       x2="27"
       y2="1012.3622"
       id="linearGradient4170"
       xlink:href="#linearGradient4110"
       gradientUnits="userSpaceOnUse" />
    <linearGradient
       x1="20"
       y1="1028.3622"
       x2="32"
       y2="1028.3622"
       id="linearGradient4214"
       xlink:href="#linearGradient3782"
       gradientUnits="userSpaceOnUse"
       gradientTransform="translate(-1,1.7382813e-5)" />
    <linearGradient
       x1="20.5"
       y1="1027.3622"
       x2="32.5"
       y2="1027.3622"
       id="linearGradient4234"
       xlink:href="#linearGradient3782"
       gradientUnits="userSpaceOnUse"
       gradientTransform="translate(9,1.7382813e-5)" />
    <linearGradient
       x1="27"
       y1="1018.3622"
       x2="27"
       y2="1012.3622"
       id="linearGradient4244"
       xlink:href="#linearGradient4110"
       gradientUnits="userSpaceOnUse" />
    <linearGradient
       x1="19.5"
       y1="1027.3622"
       x2="31.5"
       y2="1027.3622"
       id="linearGradient4246"
       xlink:href="#linearGradient3758"
       gradientUnits="userSpaceOnUse"
       gradientTransform="translate(-14,3.4765626e-5)" />
    <linearGradient
       x1="27"
       y1="1018.3622"
       x2="27"
       y2="1012.3622"
       id="linearGradient4248"
       xlink:href="#linearGradient3814"
       gradientUnits="userSpaceOnUse" />
    <linearGradient
       x1="1"
       y1="1028.3622"
       x2="16"
       y2="1028.3622"
       id="linearGradient3764-9"
       xlink:href="#linearGradient3758-5"
       gradientUnits="userSpaceOnUse" />
    <linearGradient
       id="linearGradient3758-5">
      <stop
         id="stop3760-5"
         style="stop-color:#4979cf;stop-opacity:1"
         offset="0" />
      <stop
         id="stop3762-3"
         style="stop-color:#cccccc;stop-opacity:1"
         offset="1" />
    </linearGradient>
  </defs>
  <g
     transform="translate(0,-1004.3622)"
     id="layer1">
    <rect
       width="12"
       height="45.000019"
       x="5.5"
       y="1005.8622"
       id="rect2818-3-6"
       style="fill:url(#linearGradient4246);fill-opacity:1;stroke:#373737;stroke-width:0.75;stroke-linejoin:miter;stroke-miterlimit:4;stroke-opacity:1;stroke-dasharray:none;stroke-dashoffset:0" />
    <path
       d="m 8,1009.3622 0,38 7,0 -7,-38 z"
       id="path2938-3"
       style="fill:#0000ce;fill-opacity:0.43137255;stroke:#4d5187;stroke-width:0.75;stroke-linecap:butt;stroke-linejoin:bevel;stroke-miterlimit:4;stroke-opacity:1;stroke-dasharray:none" />
    <rect
       width="12"
       height="44.999981"
       x="29.5"
       y="1005.8622"
       id="use3804"
       style="fill:url(#linearGradient4234);fill-opacity:1;stroke:#373737;stroke-width:0.75;stroke-linejoin:miter;stroke-miterlimit:4;stroke-opacity:1;stroke-dasharray:none;stroke-dashoffset:0" />
    <path
       d="m 32,1009.3622 0,38 7,0 -7,-38 z"
       id="use3788"
       style="fill:#c80000;fill-opacity:0.43137255;stroke:#923636;stroke-width:0.75;stroke-linecap:butt;stroke-linejoin:bevel;stroke-miterlimit:4;stroke-opacity:1;stroke-dasharray:none" />
    <g
       transform="translate(-13.5,4.000017)"
       id="g3792">
      <rect
         width="12"
         height="6"
         x="19"
         y="1011.8622"
         id="rect2818-3-6-0"
         style="fill:url(#linearGradient4248);fill-opacity:1;stroke:#00003c;stroke-width:0.75;stroke-linejoin:bevel;stroke-miterlimit:4;stroke-opacity:1;stroke-dasharray:none;stroke-dashoffset:0" />
      <path
         d="m 19,10.499983 12,0"
         transform="translate(0,1004.3622)"
         id="path3790"
         style="fill:none;stroke:#00003c;stroke-width:0.75;stroke-linecap:butt;stroke-linejoin:miter;stroke-miterlimit:4;stroke-opacity:1;stroke-dasharray:none" />
    </g>
    <g
       transform="translate(9,9)"
       id="use3796">
      <rect
         width="12"
         height="5.9999828"
         x="20.5"
         y="1011.8622"
         id="rect4240"
         style="fill:url(#linearGradient4244);fill-opacity:1;stroke:#640000;stroke-width:0.75;stroke-linejoin:bevel;stroke-miterlimit:4;stroke-opacity:1;stroke-dasharray:none;stroke-dashoffset:0" />
      <path
         d="m 20.5,10.5 12,0"
         transform="translate(0,1004.3622)"
         id="path4242"
         style="fill:none;stroke:#640000;stroke-width:0.75;stroke-linecap:butt;stroke-linejoin:miter;stroke-miterlimit:4;stroke-opacity:1;stroke-dasharray:none" />
    </g>
  </g>
</svg>
